…
```r
accept_coupon %>% 
  naniar::miss_var_summary()
```

```
## # A tibble: 26 x 3
##    variable             n_miss pct_miss
##    <chr>                 <int>    <dbl>
##  1 car                   12576   99.1  
##  2 CoffeeHouse             217    1.71 
##  3 Restaurant20To50        189    1.49 
##  4 CarryAway               151    1.19 
##  5 RestaurantLessThan20    130    1.02 
##  6 Bar                     107    0.844
##  7 destination               0    0    
##  8 passanger                 0    0    
##  9 weather                   0    0    
## 10 temperature               0    0    
## # ... with 16 more rows
```
…
```
## [1] "car"           "direction_opp"
```



```r
miss_var_summary(coupon)
```

```
## # A tibble: 24 x 3
##    variable             n_miss pct_miss
##    <chr>                 <int>    <dbl>
##  1 CoffeeHouse             217    1.71 
##  2 Restaurant20To50        189    1.49 
##  3 CarryAway               151    1.19 
##  4 RestaurantLessThan20    130    1.02 
##  5 Bar                     107    0.844
##  6 destination               0    0    
##  7 passanger                 0    0    
##  8 weather                   0    0    
##  9 temperature               0    0    
## 10 time                      0    0    
## # ... with 14 more rows
```
…
```r
rf_coupon_results %>% 
  collect_metrics(summarize = FALSE)
```

```
## # A tibble: 50 x 8
##    id     mtry trees min_n .metric  .estimator .estimate .config             
##    <chr> <int> <int> <int> <chr>    <chr>          <dbl> <chr>               
##  1 Fold1    21  1290     2 accuracy binary         0.729 Preprocessor1_Model1
##  2 Fold1    21  1290     2 roc_auc  binary         0.799 Preprocessor1_Model1
##  3 Fold2    21  1290     2 accuracy binary         0.723 Preprocessor1_Model1
##  4 Fold2    21  1290     2 roc_auc  binary         0.794 Preprocessor1_Model1
##  5 Fold3    21  1290     2 accuracy binary         0.759 Preprocessor1_Model1
##  6 Fold3    21  1290     2 roc_auc  binary         0.836 Preprocessor1_Model1
##  7 Fold4    21  1290     2 accuracy binary         0.725 Preprocessor1_Model1
##  8 Fold4    21  1290     2 roc_auc  binary         0.796 Preprocessor1_Model1
##  9 Fold5    21  1290     2 accuracy binary         0.732 Preprocessor1_Model1
## 10 Fold5    21  1290     2 roc_auc  binary         0.819 Preprocessor1_Model1
## # ... with 40 more rows
```
…
